module api-gateway

go 1.18

require (
	github.com/gin-gonic/gin v1.7.7
	github.com/valyala/fasthttp v1.36.0
)

require (
	github.com/andybalholm/brotli v1.0.4 // indirect
	github.com/klauspost/compress v1.15.0 // indirect
	github.com/valyala/bytebufferpool v1.0.0 // indirect
)

require (
	github.com/gin-contrib/sse v0.1.0 // indirect
	github.com/go-playground/locales v0.13.0 // indirect
	github.com/go-playground/universal-translator v0.17.0 // indirect
	github.com/go-playground/validator/v10 v10.4.1 // indirect
	github.com/golang/protobuf v1.3.3 // indirect
	github.com/joho/godotenv v1.4.0
	github.com/json-iterator/go v1.1.12
	github.com/leodido/go-urn v1.2.0 // indirect
	github.com/mattn/go-isatty v0.0.12 // indirect
	github.com/modern-go/concurrent v0.0.0-20180228061459-e0a39a4cb421 // indirect
	github.com/modern-go/reflect2 v1.0.2 // indirect
	github.com/ugorji/go/codec v1.1.7 // indirect
	golang.org/x/crypto v0.0.0-20220214200702-86341886e292 // indirect
	golang.org/x/sys v0.0.0-20220227234510-4e6760a101f9 // indirect
	gopkg.in/yaml.v2 v2.2.8 // indirect
)
